simulation/qsim/VGADisplay.msim.vcd
$comment
	File created using the following command:
		vcd file VGADisplay.msim.vcd -direction
$end
$date
	Thu Oct 29 10:39:02 2020
$end
$version
	ModelSim Version 10.5b
$end
$timescale
	1ps
$end

$scope module VGADisplay_vlg_vec_tst $end
$var reg 1 ! CLOCK_50 $end
$var wire 1 " VGA_B [3] $end
$var wire 1 # VGA_B [2] $end
$var wire 1 $ VGA_B [1] $end
$var wire 1 % VGA_B [0] $end
$var wire 1 & VGA_G [3] $end
$var wire 1 ' VGA_G [2] $end
$var wire 1 ( VGA_G [1] $end
$var wire 1 ) VGA_G [0] $end
$var wire 1 * VGA_HS $end
$var wire 1 + VGA_R [3] $end
$var wire 1 , VGA_R [2] $end
$var wire 1 - VGA_R [1] $end
$var wire 1 . VGA_R [0] $end
$var wire 1 / VGA_VS $end

$scope module i1 $end
$var wire 1 0 gnd $end
$var wire 1 1 vcc $end
$var wire 1 2 unknown $end
$var tri1 1 3 devclrn $end
$var tri1 1 4 devpor $end
$var tri1 1 5 devoe $end
$var wire 1 6 VGA_HS~output_o $end
$var wire 1 7 VGA_VS~output_o $end
$var wire 1 8 VGA_R[0]~output_o $end
$var wire 1 9 VGA_R[1]~output_o $end
$var wire 1 : VGA_R[2]~output_o $end
$var wire 1 ; VGA_R[3]~output_o $end
$var wire 1 < VGA_G[0]~output_o $end
$var wire 1 = VGA_G[1]~output_o $end
$var wire 1 > VGA_G[2]~output_o $end
$var wire 1 ? VGA_G[3]~output_o $end
$var wire 1 @ VGA_B[0]~output_o $end
$var wire 1 A VGA_B[1]~output_o $end
$var wire 1 B VGA_B[2]~output_o $end
$var wire 1 C VGA_B[3]~output_o $end
$var wire 1 D CLOCK_50~input_o $end
$var wire 1 E comb_3|ff0|Q~0_combout $end
$var wire 1 F comb_3|ff0|Q~q $end
$var wire 1 G s0|FF0|ff0|Q~0_combout $end
$var wire 1 H s0|FF1|ff0|Q~0_combout $end
$var wire 1 I s0|FF1|ff0|Q~q $end
$var wire 1 J s0|FF5|ff0|Q~0_combout $end
$var wire 1 K s0|FF5|ff0|Q~q $end
$var wire 1 L s0|FF6|ff0|Q~0_combout $end
$var wire 1 M s0|FF6|ff0|Q~q $end
$var wire 1 N s1|Equal0~3_combout $end
$var wire 1 O s0|FF7|ff0|Q~0_combout $end
$var wire 1 P s0|FF7|ff0|Q~q $end
$var wire 1 Q s0|FF8|ff0|Q~0_combout $end
$var wire 1 R s0|FF8|ff0|Q~q $end
$var wire 1 S s0|FF9|ff0|Q~0_combout $end
$var wire 1 T s0|FF9|ff0|Q~q $end
$var wire 1 U s1|Equal2~0_combout $end
$var wire 1 V s0|Equal0~0_combout $end
$var wire 1 W s0|FF0|ff0|Q~q $end
$var wire 1 X s0|FF2|ff0|Q~0_combout $end
$var wire 1 Y s0|FF2|ff0|Q~q $end
$var wire 1 Z s0|FF3|ff0|Q~0_combout $end
$var wire 1 [ s0|FF3|ff0|Q~q $end
$var wire 1 \ s0|FF4|ff0|Q~0_combout $end
$var wire 1 ] s0|FF4|ff0|Q~q $end
$var wire 1 ^ s1|Equal0~0_combout $end
$var wire 1 _ s1|Equal0~2_combout $end
$var wire 1 ` s1|Equal0~1_combout $end
$var wire 1 a s1|Equal1~0_combout $end
$var wire 1 b s1|Selector1~0_combout $end
$var wire 1 c s1|pState.S1~q $end
$var wire 1 d s1|Selector2~0_combout $end
$var wire 1 e s1|pState.S2~q $end
$var wire 1 f s1|Equal3~1_combout $end
$var wire 1 g s1|Selector3~0_combout $end
$var wire 1 h s1|pState.S3~q $end
$var wire 1 i s1|Equal3~0_combout $end
$var wire 1 j s1|Selector0~0_combout $end
$var wire 1 k s1|pState.S0~q $end
$var wire 1 l s2|FF0|ff0|Q~0_combout $end
$var wire 1 m s2|FF1|ff0|Q~0_combout $end
$var wire 1 n s2|FF1|ff0|Q~q $end
$var wire 1 o s2|FF2|ff0|Q~0_combout $end
$var wire 1 p s2|FF2|ff0|Q~q $end
$var wire 1 q s2|FF3|ff0|Q~0_combout $end
$var wire 1 r s2|FF3|ff0|Q~q $end
$var wire 1 s s2|FF4|ff0|Q~0_combout $end
$var wire 1 t s2|FF4|ff0|Q~q $end
$var wire 1 u s2|jkInput[9]~0_combout $end
$var wire 1 v s2|FF6|ff0|Q~0_combout $end
$var wire 1 w s2|FF6|ff0|Q~q $end
$var wire 1 x s2|FF7|ff0|Q~0_combout $end
$var wire 1 y s2|FF7|ff0|Q~q $end
$var wire 1 z s2|FF8|ff0|Q~0_combout $end
$var wire 1 { s2|FF8|ff0|Q~q $end
$var wire 1 | s2|FF9|ff0|Q~0_combout $end
$var wire 1 } s2|FF9|ff0|Q~q $end
$var wire 1 ~ s3|Equal2~0_combout $end
$var wire 1 !! s3|Equal3~0_combout $end
$var wire 1 "! s2|Equal0~0_combout $end
$var wire 1 #! s2|FF0|ff0|Q~q $end
$var wire 1 $! s2|FF5|ff0|Q~0_combout $end
$var wire 1 %! s2|FF5|ff0|Q~q $end
$var wire 1 &! s3|Equal0~0_combout $end
$var wire 1 '! s3|Equal3~1_combout $end
$var wire 1 (! s3|Equal2~1_combout $end
$var wire 1 )! s3|Equal0~1_combout $end
$var wire 1 *! s3|Equal1~0_combout $end
$var wire 1 +! s3|Selector1~0_combout $end
$var wire 1 ,! s3|pState.S1~q $end
$var wire 1 -! s3|Selector2~0_combout $end
$var wire 1 .! s3|pState.S2~q $end
$var wire 1 /! s3|Selector3~0_combout $end
$var wire 1 0! s3|pState.S3~q $end
$var wire 1 1! s3|Selector0~0_combout $end
$var wire 1 2! s3|pState.S0~q $end
$var wire 1 3! VGA_R~0_combout $end
$upscope $end
$upscope $end
$enddefinitions $end
#0
$dumpvars
0!
0%
0$
0#
0"
0)
0(
0'
0&
0*
0.
0-
0,
0+
0/
00
11
x2
13
14
15
06
07
08
09
0:
0;
0<
0=
0>
0?
0@
0A
0B
0C
0D
1E
0F
1G
0H
0I
0J
0K
0L
0M
0N
0O
0P
0Q
0R
0S
0T
0U
0V
0W
0X
0Y
0Z
0[
0\
0]
0^
0_
1`
0a
0b
0c
0d
0e
0f
0g
0h
0i
0j
0k
1l
0m
0n
0o
0p
0q
0r
0s
0t
0u
0v
0w
0x
0y
0z
0{
0|
0}
0~
0!!
0"!
0#!
0$!
0%!
1&!
0'!
0(!
0)!
0*!
0+!
0,!
0-!
0.!
0/!
00!
01!
02!
03!
$end
#1000
1!
1D
#2000
0!
0D
1F
0E
#3000
1!
1D
#4000
0!
0D
0F
1E
1W
1H
0G
#5000
1!
1D
#6000
0!
0D
1F
0E
#7000
1!
1D
#8000
0!
0D
0F
1E
1I
0W
1G
#9000
1!
1D
#10000
0!
0D
1F
0E
#11000
1!
1D
#12000
0!
0D
0F
1E
1W
1X
0H
0G
#13000
1!
1D
#14000
0!
0D
1F
0E
#15000
1!
1D
#16000
0!
0D
0F
1E
0I
0W
1Y
1G
#17000
1!
1D
#18000
0!
0D
1F
0E
#19000
1!
1D
#20000
0!
0D
0F
1E
1W
1H
0G
#21000
1!
1D
#22000
0!
0D
1F
0E
#23000
1!
1D
#24000
0!
0D
0F
1E
1I
0W
1G
#25000
1!
1D
#26000
0!
0D
1F
0E
#27000
1!
1D
#28000
0!
0D
0F
1E
1W
1Z
0X
0H
0G
#29000
1!
1D
#30000
0!
0D
1F
0E
#31000
1!
1D
#32000
0!
0D
0F
1E
0I
0W
0Y
1[
1G
#33000
1!
1D
#34000
0!
0D
1F
0E
#35000
1!
1D
#36000
0!
0D
0F
1E
1W
1H
0G
#37000
1!
1D
#38000
0!
0D
1F
0E
#39000
1!
1D
#40000
0!
0D
0F
1E
1I
0W
1G
#41000
1!
1D
#42000
0!
0D
1F
0E
#43000
1!
1D
#44000
0!
0D
0F
1E
1W
1X
0H
0G
#45000
1!
1D
#46000
0!
0D
1F
0E
#47000
1!
1D
#48000
0!
0D
0F
1E
0I
0W
1Y
1G
#49000
1!
1D
#50000
0!
0D
1F
0E
#51000
1!
1D
#52000
0!
0D
0F
1E
1W
1H
0G
#53000
1!
1D
#54000
0!
0D
1F
0E
#55000
1!
1D
#56000
0!
0D
0F
1E
1I
0W
1G
#57000
1!
1D
#58000
0!
0D
1F
0E
#59000
1!
1D
#60000
0!
0D
0F
1E
1W
1_
1\
0Z
0X
0H
0G
#61000
1!
1D
#62000
0!
0D
1F
0E
#63000
1!
1D
#64000
0!
0D
0F
1E
0I
0W
0Y
0[
1]
0_
1G
#65000
1!
1D
#66000
0!
0D
1F
0E
#67000
1!
1D
#68000
0!
0D
0F
1E
1W
1H
0G
#69000
1!
1D
#70000
0!
0D
1F
0E
#71000
1!
1D
#72000
0!
0D
0F
1E
1I
0W
1G
#73000
1!
1D
#74000
0!
0D
1F
0E
#75000
1!
1D
#76000
0!
0D
0F
1E
1W
1X
0H
0G
#77000
1!
1D
#78000
0!
0D
1F
0E
#79000
1!
1D
#80000
0!
0D
0F
1E
0I
0W
1Y
1G
#81000
1!
1D
#82000
0!
0D
1F
0E
#83000
1!
1D
#84000
0!
0D
0F
1E
1W
1H
0G
#85000
1!
1D
#86000
0!
0D
1F
0E
#87000
1!
1D
#88000
0!
0D
0F
1E
1I
0W
1G
#89000
1!
1D
#90000
0!
0D
1F
0E
#91000
1!
1D
#92000
0!
0D
0F
1E
1W
1Z
0X
0H
0G
#93000
1!
1D
#94000
0!
0D
1F
0E
#95000
1!
1D
#96000
0!
0D
0F
1E
0I
0W
0Y
1[
1G
#97000
1!
1D
#98000
0!
0D
1F
0E
#99000
1!
1D
#100000
0!
0D
0F
1E
1W
1H
0G
#101000
1!
1D
#102000
0!
0D
1F
0E
#103000
1!
1D
#104000
0!
0D
0F
1E
1I
0W
1G
#105000
1!
1D
#106000
0!
0D
1F
0E
#107000
1!
1D
#108000
0!
0D
0F
1E
1W
1X
0H
0G
#109000
1!
1D
#110000
0!
0D
1F
0E
#111000
1!
1D
#112000
0!
0D
0F
1E
0I
0W
1Y
1G
#113000
1!
1D
#114000
0!
0D
1F
0E
#115000
1!
1D
#116000
0!
0D
0F
1E
1W
1H
0G
#117000
1!
1D
#118000
0!
0D
1F
0E
#119000
1!
1D
#120000
0!
0D
0F
1E
1I
0W
1G
#121000
1!
1D
#122000
0!
0D
1F
0E
#123000
1!
1D
#124000
0!
0D
0F
1E
1W
1_
1^
0\
0Z
0X
1J
0H
0G
#125000
1!
1D
#126000
0!
0D
1F
0E
#127000
1!
1D
#128000
0!
0D
0F
1E
0I
1K
0W
0Y
0[
0]
0^
0_
0`
1G
1L
0L
#129000
1!
1D
#130000
0!
0D
1F
0E
#131000
1!
1D
#132000
0!
0D
0F
1E
1W
1H
0G
#133000
1!
1D
#134000
0!
0D
1F
0E
#135000
1!
1D
#136000
0!
0D
0F
1E
1I
0W
1G
#137000
1!
1D
#138000
0!
0D
1F
0E
#139000
1!
1D
#140000
0!
0D
0F
1E
1W
1X
0H
0G
#141000
1!
1D
#142000
0!
0D
1F
0E
#143000
1!
1D
#144000
0!
0D
0F
1E
0I
0W
1Y
1G
#145000
1!
1D
#146000
0!
0D
1F
0E
#147000
1!
1D
#148000
0!
0D
0F
1E
1W
1H
0G
#149000
1!
1D
#150000
0!
0D
1F
0E
#151000
1!
1D
#152000
0!
0D
0F
1E
1I
0W
1G
#153000
1!
1D
#154000
0!
0D
1F
0E
#155000
1!
1D
#156000
0!
0D
0F
1E
1W
1Z
0X
0H
0G
#157000
1!
1D
#158000
0!
0D
1F
0E
#159000
1!
1D
#160000
0!
0D
0F
1E
0I
0W
0Y
1[
1G
#161000
1!
1D
#162000
0!
0D
1F
0E
#163000
1!
1D
#164000
0!
0D
0F
1E
1W
1H
0G
#165000
1!
1D
#166000
0!
0D
1F
0E
#167000
1!
1D
#168000
0!
0D
0F
1E
1I
0W
1G
#169000
1!
1D
#170000
0!
0D
1F
0E
#171000
1!
1D
#172000
0!
0D
0F
1E
1W
1X
0H
0G
#173000
1!
1D
#174000
0!
0D
1F
0E
#175000
1!
1D
#176000
0!
0D
0F
1E
0I
0W
1Y
1G
#177000
1!
1D
#178000
0!
0D
1F
0E
#179000
1!
1D
#180000
0!
0D
0F
1E
1W
1H
0G
#181000
1!
1D
#182000
0!
0D
1F
0E
#183000
1!
1D
#184000
0!
0D
0F
1E
1I
0W
1G
#185000
1!
1D
#186000
0!
0D
1F
0E
#187000
1!
1D
#188000
0!
0D
0F
1E
1W
1_
1\
0Z
0X
0H
0G
#189000
1!
1D
#190000
0!
0D
1F
0E
#191000
1!
1D
#192000
0!
0D
0F
1E
0I
0W
0Y
0[
1]
0_
1G
#193000
1!
1D
#194000
0!
0D
1F
0E
#195000
1!
1D
#196000
0!
0D
0F
1E
1W
1H
0G
#197000
1!
1D
#198000
0!
0D
1F
0E
#199000
1!
1D
#200000
0!
0D
0F
1E
1I
0W
1G
#201000
1!
1D
#202000
0!
0D
1F
0E
#203000
1!
1D
#204000
0!
0D
0F
1E
1W
1X
0H
0G
#205000
1!
1D
#206000
0!
0D
1F
0E
#207000
1!
1D
#208000
0!
0D
0F
1E
0I
0W
1Y
1G
#209000
1!
1D
#210000
0!
0D
1F
0E
#211000
1!
1D
#212000
0!
0D
0F
1E
1W
1H
0G
#213000
1!
1D
#214000
0!
0D
1F
0E
#215000
1!
1D
#216000
0!
0D
0F
1E
1I
0W
1G
#217000
1!
1D
#218000
0!
0D
1F
0E
#219000
1!
1D
#220000
0!
0D
0F
1E
1W
1Z
0X
0H
0G
#221000
1!
1D
#222000
0!
0D
1F
0E
#223000
1!
1D
#224000
0!
0D
0F
1E
0I
0W
0Y
1[
1G
#225000
1!
1D
#226000
0!
0D
1F
0E
#227000
1!
1D
#228000
0!
0D
0F
1E
1W
1H
0G
#229000
1!
1D
#230000
0!
0D
1F
0E
#231000
1!
1D
#232000
0!
0D
0F
1E
1I
0W
1G
#233000
1!
1D
#234000
0!
0D
1F
0E
#235000
1!
1D
#236000
0!
0D
0F
1E
1W
1X
0H
0G
#237000
1!
1D
#238000
0!
0D
1F
0E
#239000
1!
1D
#240000
0!
0D
0F
1E
0I
0W
1Y
1G
#241000
1!
1D
#242000
0!
0D
1F
0E
#243000
1!
1D
#244000
0!
0D
0F
1E
1W
1H
0G
#245000
1!
1D
#246000
0!
0D
1F
0E
#247000
1!
1D
#248000
0!
0D
0F
1E
1I
0W
1G
#249000
1!
1D
#250000
0!
0D
1F
0E
#251000
1!
1D
#252000
0!
0D
0F
1E
1W
1_
1^
0\
0Z
0X
0J
0H
0G
1L
#253000
1!
1D
#254000
0!
0D
1F
0E
#255000
1!
1D
#256000
0!
0D
0F
1E
0I
0K
1M
0W
0Y
0[
0]
0^
0_
1`
1G
#257000
1!
1D
#258000
0!
0D
1F
0E
#259000
1!
1D
#260000
0!
0D
0F
1E
1W
1H
0G
#261000
1!
1D
#262000
0!
0D
1F
0E
#263000
1!
1D
#264000
0!
0D
0F
1E
1I
0W
1G
#265000
1!
1D
#266000
0!
0D
1F
0E
#267000
1!
1D
#268000
0!
0D
0F
1E
1W
1X
0H
0G
#269000
1!
1D
#270000
0!
0D
1F
0E
#271000
1!
1D
#272000
0!
0D
0F
1E
0I
0W
1Y
1G
#273000
1!
1D
#274000
0!
0D
1F
0E
#275000
1!
1D
#276000
0!
0D
0F
1E
1W
1H
0G
#277000
1!
1D
#278000
0!
0D
1F
0E
#279000
1!
1D
#280000
0!
0D
0F
1E
1I
0W
1G
#281000
1!
1D
#282000
0!
0D
1F
0E
#283000
1!
1D
#284000
0!
0D
0F
1E
1W
1Z
0X
0H
0G
#285000
1!
1D
#286000
0!
0D
1F
0E
#287000
1!
1D
#288000
0!
0D
0F
1E
0I
0W
0Y
1[
1G
#289000
1!
1D
#290000
0!
0D
1F
0E
#291000
1!
1D
#292000
0!
0D
0F
1E
1W
1H
0G
#293000
1!
1D
#294000
0!
0D
1F
0E
#295000
1!
1D
#296000
0!
0D
0F
1E
1I
0W
1G
#297000
1!
1D
#298000
0!
0D
1F
0E
#299000
1!
1D
#300000
0!
0D
0F
1E
1W
1X
0H
0G
#301000
1!
1D
#302000
0!
0D
1F
0E
#303000
1!
1D
#304000
0!
0D
0F
1E
0I
0W
1Y
1G
#305000
1!
1D
#306000
0!
0D
1F
0E
#307000
1!
1D
#308000
0!
0D
0F
1E
1W
1H
0G
#309000
1!
1D
#310000
0!
0D
1F
0E
#311000
1!
1D
#312000
0!
0D
0F
1E
1I
0W
1G
#313000
1!
1D
#314000
0!
0D
1F
0E
#315000
1!
1D
#316000
0!
0D
0F
1E
1W
1_
1\
0Z
0X
0H
0G
#317000
1!
1D
#318000
0!
0D
1F
0E
#319000
1!
1D
#320000
0!
0D
0F
1E
0I
0W
0Y
0[
1]
0_
1G
#321000
1!
1D
#322000
0!
0D
1F
0E
#323000
1!
1D
#324000
0!
0D
0F
1E
1W
1H
0G
#325000
1!
1D
#326000
0!
0D
1F
0E
#327000
1!
1D
#328000
0!
0D
0F
1E
1I
0W
1G
#329000
1!
1D
#330000
0!
0D
1F
0E
#331000
1!
1D
#332000
0!
0D
0F
1E
1W
1X
0H
0G
#333000
1!
1D
#334000
0!
0D
1F
0E
#335000
1!
1D
#336000
0!
0D
0F
1E
0I
0W
1Y
1G
#337000
1!
1D
#338000
0!
0D
1F
0E
#339000
1!
1D
#340000
0!
0D
0F
1E
1W
1H
0G
#341000
1!
1D
#342000
0!
0D
1F
0E
#343000
1!
1D
#344000
0!
0D
0F
1E
1I
0W
1G
#345000
1!
1D
#346000
0!
0D
1F
0E
#347000
1!
1D
#348000
0!
0D
0F
1E
1W
1Z
0X
0H
0G
#349000
1!
1D
#350000
0!
0D
1F
0E
#351000
1!
1D
#352000
0!
0D
0F
1E
0I
0W
0Y
1[
1G
#353000
1!
1D
#354000
0!
0D
1F
0E
#355000
1!
1D
#356000
0!
0D
0F
1E
1W
1H
0G
#357000
1!
1D
#358000
0!
0D
1F
0E
#359000
1!
1D
#360000
0!
0D
0F
1E
1I
0W
1G
#361000
1!
1D
#362000
0!
0D
1F
0E
#363000
1!
1D
#364000
0!
0D
0F
1E
1W
1X
0H
0G
#365000
1!
1D
#366000
0!
0D
1F
0E
#367000
1!
1D
#368000
0!
0D
0F
1E
0I
0W
1Y
1G
#369000
1!
1D
#370000
0!
0D
1F
0E
#371000
1!
1D
#372000
0!
0D
0F
1E
1W
1H
0G
#373000
1!
1D
#374000
0!
0D
1F
0E
#375000
1!
1D
#376000
0!
0D
0F
1E
1I
0W
1G
#377000
1!
1D
#378000
0!
0D
1F
0E
#379000
1!
1D
#380000
0!
0D
0F
1E
1W
1_
1^
1N
0\
0Z
0X
1J
0H
0G
1b
1j
#381000
1!
1D
#382000
0!
0D
1F
0E
1c
1k
16
1*
#383000
1!
1D
#384000
0!
0D
0F
1E
0I
1K
0W
0Y
0[
0]
0^
0N
0_
0`
1G
1O
0L
0O
1L
#385000
1!
1D
#386000
0!
0D
1F
0E
#387000
1!
1D
#388000
0!
0D
0F
1E
1W
1H
0G
#389000
1!
1D
#390000
0!
0D
1F
0E
#391000
1!
1D
#392000
0!
0D
0F
1E
1I
0W
1G
#393000
1!
1D
#394000
0!
0D
1F
0E
#395000
1!
1D
#396000
0!
0D
0F
1E
1W
1X
0H
0G
#397000
1!
1D
#398000
0!
0D
1F
0E
#399000
1!
1D
#400000
0!
0D
0F
1E
0I
0W
1Y
1G
#401000
1!
1D
#402000
0!
0D
1F
0E
#403000
1!
1D
#404000
0!
0D
0F
1E
1W
1H
0G
#405000
1!
1D
#406000
0!
0D
1F
0E
#407000
1!
1D
#408000
0!
0D
0F
1E
1I
0W
1G
#409000
1!
1D
#410000
0!
0D
1F
0E
#411000
1!
1D
#412000
0!
0D
0F
1E
1W
1Z
0X
0H
0G
#413000
1!
1D
#414000
0!
0D
1F
0E
#415000
1!
1D
#416000
0!
0D
0F
1E
0I
0W
0Y
1[
1G
#417000
1!
1D
#418000
0!
0D
1F
0E
#419000
1!
1D
#420000
0!
0D
0F
1E
1W
1H
0G
#421000
1!
1D
#422000
0!
0D
1F
0E
#423000
1!
1D
#424000
0!
0D
0F
1E
1I
0W
1G
#425000
1!
1D
#426000
0!
0D
1F
0E
#427000
1!
1D
#428000
0!
0D
0F
1E
1W
1X
0H
0G
#429000
1!
1D
#430000
0!
0D
1F
0E
#431000
1!
1D
#432000
0!
0D
0F
1E
0I
0W
1Y
1G
#433000
1!
1D
#434000
0!
0D
1F
0E
#435000
1!
1D
#436000
0!
0D
0F
1E
1W
1H
0G
#437000
1!
1D
#438000
0!
0D
1F
0E
#439000
1!
1D
#440000
0!
0D
0F
1E
1I
0W
1G
#441000
1!
1D
#442000
0!
0D
1F
0E
#443000
1!
1D
#444000
0!
0D
0F
1E
1W
1_
1\
0Z
0X
0H
0G
#445000
1!
1D
#446000
0!
0D
1F
0E
#447000
1!
1D
#448000
0!
0D
0F
1E
0I
0W
0Y
0[
1]
0_
1G
#449000
1!
1D
#450000
0!
0D
1F
0E
#451000
1!
1D
#452000
0!
0D
0F
1E
1W
1H
0G
#453000
1!
1D
#454000
0!
0D
1F
0E
#455000
1!
1D
#456000
0!
0D
0F
1E
1I
0W
1G
#457000
1!
1D
#458000
0!
0D
1F
0E
#459000
1!
1D
#460000
0!
0D
0F
1E
1W
1X
0H
0G
#461000
1!
1D
#462000
0!
0D
1F
0E
#463000
1!
1D
#464000
0!
0D
0F
1E
0I
0W
1Y
1G
#465000
1!
1D
#466000
0!
0D
1F
0E
#467000
1!
1D
#468000
0!
0D
0F
1E
1W
1H
0G
#469000
1!
1D
#470000
0!
0D
1F
0E
#471000
1!
1D
#472000
0!
0D
0F
1E
1I
0W
1G
#473000
1!
1D
#474000
0!
0D
1F
0E
#475000
1!
1D
#476000
0!
0D
0F
1E
1W
1Z
0X
0H
0G
#477000
1!
1D
#478000
0!
0D
1F
0E
#479000
1!
1D
#480000
0!
0D
0F
1E
0I
0W
0Y
1[
1G
#481000
1!
1D
#482000
0!
0D
1F
0E
#483000
1!
1D
#484000
0!
0D
0F
1E
1W
1H
0G
#485000
1!
1D
#486000
0!
0D
1F
0E
#487000
1!
1D
#488000
0!
0D
0F
1E
1I
0W
1G
#489000
1!
1D
#490000
0!
0D
1F
0E
#491000
1!
1D
#492000
0!
0D
0F
1E
1W
1X
0H
0G
#493000
1!
1D
#494000
0!
0D
1F
0E
#495000
1!
1D
#496000
0!
0D
0F
1E
0I
0W
1Y
1G
#497000
1!
1D
#498000
0!
0D
1F
0E
#499000
1!
1D
#500000
0!
0D
0F
1E
1W
1H
0G
#501000
1!
1D
#502000
0!
0D
1F
0E
#503000
1!
1D
#504000
0!
0D
0F
1E
1I
0W
1G
#505000
1!
1D
#506000
0!
0D
1F
0E
#507000
1!
1D
#508000
0!
0D
0F
1E
1W
1_
1^
1N
0\
0Z
0X
0J
0H
0G
1O
0L
#509000
1!
1D
#510000
0!
0D
1F
0E
#511000
1!
1D
#512000
0!
0D
0F
1E
0I
0K
0M
1P
0W
0Y
0[
0]
1a
0^
0N
0_
1G
#513000
1!
1D
#514000
0!
0D
1F
0E
#515000
1!
1D
#516000
0!
0D
0F
1E
1W
1H
0G
#517000
1!
1D
#518000
0!
0D
1F
0E
#519000
1!
1D
#520000
0!
0D
0F
1E
1I
0W
1G
#521000
1!
1D
#522000
0!
0D
1F
0E
#523000
1!
1D
#524000
0!
0D
0F
1E
1W
1X
0H
0G
#525000
1!
1D
#526000
0!
0D
1F
0E
#527000
1!
1D
#528000
0!
0D
0F
1E
0I
0W
1Y
1G
#529000
1!
1D
#530000
0!
0D
1F
0E
#531000
1!
1D
#532000
0!
0D
0F
1E
1W
1H
0G
#533000
1!
1D
#534000
0!
0D
1F
0E
#535000
1!
1D
#536000
0!
0D
0F
1E
1I
0W
1G
#537000
1!
1D
#538000
0!
0D
1F
0E
#539000
1!
1D
#540000
0!
0D
0F
1E
1W
1Z
0X
0H
0G
#541000
1!
1D
#542000
0!
0D
1F
0E
#543000
1!
1D
#544000
0!
0D
0F
1E
0I
0W
0Y
1[
1G
#545000
1!
1D
#546000
0!
0D
1F
0E
#547000
1!
1D
#548000
0!
0D
0F
1E
1W
1H
0G
#549000
1!
1D
#550000
0!
0D
1F
0E
#551000
1!
1D
#552000
0!
0D
0F
1E
1I
0W
1G
#553000
1!
1D
#554000
0!
0D
1F
0E
#555000
1!
1D
#556000
0!
0D
0F
1E
1W
1X
0H
0G
#557000
1!
1D
#558000
0!
0D
1F
0E
#559000
1!
1D
#560000
0!
0D
0F
1E
0I
0W
1Y
1G
#561000
1!
1D
#562000
0!
0D
1F
0E
#563000
1!
1D
#564000
0!
0D
0F
1E
1W
1H
0G
#565000
1!
1D
#566000
0!
0D
1F
0E
#567000
1!
1D
#568000
0!
0D
0F
1E
1I
0W
1G
#569000
1!
1D
#570000
0!
0D
1F
0E
#571000
1!
1D
#572000
0!
0D
0F
1E
1W
1_
1\
0Z
0X
0H
0G
1d
0b
#573000
1!
1D
#574000
0!
0D
1F
0E
1e
0c
#575000
1!
1D
#576000
0!
0D
0F
1E
0I
0W
0Y
0[
1]
0a
0_
1G
#577000
1!
1D
#578000
0!
0D
1F
0E
#579000
1!
1D
#580000
0!
0D
0F
1E
1W
1H
0G
#581000
1!
1D
#582000
0!
0D
1F
0E
#583000
1!
1D
#584000
0!
0D
0F
1E
1I
0W
1G
#585000
1!
1D
#586000
0!
0D
1F
0E
#587000
1!
1D
#588000
0!
0D
0F
1E
1W
1X
0H
0G
#589000
1!
1D
#590000
0!
0D
1F
0E
#591000
1!
1D
#592000
0!
0D
0F
1E
0I
0W
1Y
1G
#593000
1!
1D
#594000
0!
0D
1F
0E
#595000
1!
1D
#596000
0!
0D
0F
1E
1W
1H
0G
#597000
1!
1D
#598000
0!
0D
1F
0E
#599000
1!
1D
#600000
0!
0D
0F
1E
1I
0W
1G
#601000
1!
1D
#602000
0!
0D
1F
0E
#603000
1!
1D
#604000
0!
0D
0F
1E
1W
1Z
0X
0H
0G
#605000
1!
1D
#606000
0!
0D
1F
0E
#607000
1!
1D
#608000
0!
0D
0F
1E
0I
0W
0Y
1[
1G
#609000
1!
1D
#610000
0!
0D
1F
0E
#611000
1!
1D
#612000
0!
0D
0F
1E
1W
1H
0G
#613000
1!
1D
#614000
0!
0D
1F
0E
#615000
1!
1D
#616000
0!
0D
0F
1E
1I
0W
1G
#617000
1!
1D
#618000
0!
0D
1F
0E
#619000
1!
1D
#620000
0!
0D
0F
1E
1W
1X
0H
0G
#621000
1!
1D
#622000
0!
0D
1F
0E
#623000
1!
1D
#624000
0!
0D
0F
1E
0I
0W
1Y
1G
#625000
1!
1D
#626000
0!
0D
1F
0E
#627000
1!
1D
#628000
0!
0D
0F
1E
1W
1H
0G
#629000
1!
1D
#630000
0!
0D
1F
0E
#631000
1!
1D
#632000
0!
0D
0F
1E
1I
0W
1G
#633000
1!
1D
#634000
0!
0D
1F
0E
#635000
1!
1D
#636000
0!
0D
0F
1E
1W
1_
1^
0\
0Z
0X
1J
0H
0G
#637000
1!
1D
#638000
0!
0D
1F
0E
#639000
1!
1D
#640000
0!
0D
0F
1E
0I
1K
0W
0Y
0[
0]
0^
0_
1G
1L
0L
#641000
1!
1D
#642000
0!
0D
1F
0E
#643000
1!
1D
#644000
0!
0D
0F
1E
1W
1H
0G
#645000
1!
1D
#646000
0!
0D
1F
0E
#647000
1!
1D
#648000
0!
0D
0F
1E
1I
0W
1G
#649000
1!
1D
#650000
0!
0D
1F
0E
#651000
1!
1D
#652000
0!
0D
0F
1E
1W
1X
0H
0G
#653000
1!
1D
#654000
0!
0D
1F
0E
#655000
1!
1D
#656000
0!
0D
0F
1E
0I
0W
1Y
1G
#657000
1!
1D
#658000
0!
0D
1F
0E
#659000
1!
1D
#660000
0!
0D
0F
1E
1W
1H
0G
#661000
1!
1D
#662000
0!
0D
1F
0E
#663000
1!
1D
#664000
0!
0D
0F
1E
1I
0W
1G
#665000
1!
1D
#666000
0!
0D
1F
0E
#667000
1!
1D
#668000
0!
0D
0F
1E
1W
1Z
0X
0H
0G
#669000
1!
1D
#670000
0!
0D
1F
0E
#671000
1!
1D
#672000
0!
0D
0F
1E
0I
0W
0Y
1[
1G
#673000
1!
1D
#674000
0!
0D
1F
0E
#675000
1!
1D
#676000
0!
0D
0F
1E
1W
1H
0G
#677000
1!
1D
#678000
0!
0D
1F
0E
#679000
1!
1D
#680000
0!
0D
0F
1E
1I
0W
1G
#681000
1!
1D
#682000
0!
0D
1F
0E
#683000
1!
1D
#684000
0!
0D
0F
1E
1W
1X
0H
0G
#685000
1!
1D
#686000
0!
0D
1F
0E
#687000
1!
1D
#688000
0!
0D
0F
1E
0I
0W
1Y
1G
#689000
1!
1D
#690000
0!
0D
1F
0E
#691000
1!
1D
#692000
0!
0D
0F
1E
1W
1H
0G
#693000
1!
1D
#694000
0!
0D
1F
0E
#695000
1!
1D
#696000
0!
0D
0F
1E
1I
0W
1G
#697000
1!
1D
#698000
0!
0D
1F
0E
#699000
1!
1D
#700000
0!
0D
0F
1E
1W
1_
1\
0Z
0X
0H
0G
#701000
1!
1D
#702000
0!
0D
1F
0E
#703000
1!
1D
#704000
0!
0D
0F
1E
0I
0W
0Y
0[
1]
0_
1G
#705000
1!
1D
#706000
0!
0D
1F
0E
#707000
1!
1D
#708000
0!
0D
0F
1E
1W
1H
0G
#709000
1!
1D
#710000
0!
0D
1F
0E
#711000
1!
1D
#712000
0!
0D
0F
1E
1I
0W
1G
#713000
1!
1D
#714000
0!
0D
1F
0E
#715000
1!
1D
#716000
0!
0D
0F
1E
1W
1X
0H
0G
#717000
1!
1D
#718000
0!
0D
1F
0E
#719000
1!
1D
#720000
0!
0D
0F
1E
0I
0W
1Y
1G
#721000
1!
1D
